Project 1: Wrangling, Exploration, Visualization
…
Joining/Merging

song_match <- right_join(classic_rock, spotify_data, by = c("song", 
    "artist"))
anti_join(classic_rock, spotify_data, by = c("song", "artist"))

## # A tibble: 2,114 x 7
##    song     artist  release_year combined    has_year playcount playcount_has_y
##    <chr>    <chr>          <int> <chr>       <lgl>        <int>            <int>
##  1 Caught  .38 Sp         1982 Caught Up  TRUE            82               82
##  2 Fantasy .38 Sp           NA Fantasy Gi FALSE            3                0
##  3 Hold On .38 Sp         1981 Hold On Lo TRUE            85               85
##  4 Rockin' .38 Sp         1980 Rockin' In TRUE            18               18
##  5 Art For 10cc            1975 Art For Ar TRUE             1                1
##  6 Loser    3 Door         2000 Loser by 3 TRUE             1                1
##  7 What's  4 Non          1992 What's Up? TRUE             3                3
##  8 Take On a-ha            1985 Take On Me TRUE             1                1
##  9 Baby, P AC/DC             NA Baby, Plea FALSE            1                0
## 10 Back In AC/DC           1980 Back In Bl TRUE            97               97
## #  with 2,104 more rows

semi_join(classic_rock, spotify_data, by = c("song", "artist"))

## # A tibble: 115 x 7
##    song     artist  release_year combined    has_year playcount playcount_has_y
##    <chr>    <chr>          <int> <chr>       <lgl>        <int>            <int>
##  1 Krypton 3 Door         2000 Kryptonite TRUE            13               13
##  2 When I' 3 Door         2002 When I'm G TRUE             6                6
##  3 Dirty D AC/DC           1976 Dirty Deed TRUE            85               85
##  4 Moneyta AC/DC             NA Moneytalks FALSE           20                0
##  5 T.N.T.   AC/DC           1975 T.N.T. by  TRUE            66               66
##  6 Thunder AC/DC           1990 Thunderstr TRUE            34               34
##  7 You Sho AC/DC           1980 You Shook  TRUE           138              138
##  8 Cryin'   Aerosm         1993 Cryin' by  TRUE            15               15
##  9 Dream On Aerosm         1973 Dream On b TRUE           142              142
## 10 No More Aerosm         1975 No More No TRUE             2                2
## #  with 105 more rows
…
Using str_detect, I was able to see what songs contain the word day. There are only eight songs that contain this word in the data set.

song_match %>% summarize_all(function(x) sum(is.na(x)))

## # A tibble: 1 x 12
##    song artist release_year combined playcount  Year Month   Day  Hour   Min
##   <int>  <int>        <int>    <int>     <int> <int> <int> <int> <int> <int>
## 1     0      1         2412     2405      2405     0     0     0     0     0
## #  with 2 more variables: my_playcount <int>, secPlayed <int>

This data shows how many NAs are present in this data set for each variable. The variable with the most NAs was release_year with 2412 N/As.

song_match %>% group_by(song) %>% arrange(desc(playcount))

## # A tibble: 2,518 x 12
## # Groups:   song [2,518]
##    song  artist release_year combined playcount Year  Month Day   Hour  Min  
##    <chr> <chr>         <int> <chr>        <int> <chr> <chr> <chr> <chr> <chr>
##  1 Drea Aeros         1973 Dream O       142 2021  06    "07 " 20    12   
##  2 Swee Aeros         1975 Sweet E       141 2021  06    "26 " 23    27   
##  3 You  AC/DC          1980 You Sho       138 2021  06    "03 " 21    57   
##  4 More Boston         1976 More Th       134 2021  06    "07 " 20    05   
##  5 Craz Heart          1976 Crazy O       125 2020  11    "22 " 23    04   
##  6 Rene Styx           1978 Renegad       116 2021  08    "24 " 19    19   
##  7 Magi Heart          1976 Magic M       115 2020  11    "22 " 23    10   
##  8 Tom  Rush           1981 Tom Saw       114 2021  06    "07 " 19    00   
##  9 Barr Heart          1977 Barracu       113 2020  11    "22 " 00    18   
## 10 The  Thin          1976 The Boy       106 2021  06    "26 " 14    05   
## #  with 2,508 more rows, and 2 more variables: my_playcount <int>,
## #   secPlayed <dbl>

song_match %>% group_by(song) %>% arrange(desc(my_playcount))

## # A tibble: 2,518 x 12
## # Groups:   song [2,518]
##    song  artist release_year combined playcount Year  Month Day   Hour  Min  
##    <chr> <chr>         <int> <chr>        <int> <chr> <chr> <chr> <chr> <chr>
##  1 Edge Miley           NA <NA>            NA 2020  11    "21 " 06    32   
##  2 Plas Miley           NA <NA>            NA 2020  12    "09 " 06    39   
##  3 Zomb Miley           NA <NA>            NA 2020  11    "01 " 19    11   
##  4 Midn Miley           NA <NA>            NA 2020  11    "21 " 15    02   
##  5 The  Greta           NA <NA>            NA 2021  08    "04 " 17    24   
##  6 When Greta           NA <NA>            NA 2021  08    "04 " 17    28   
##  7 Pris Miley           NA <NA>            NA 2020  11    "23 " 19    45   
##  8 Welc Bo Bu           NA <NA>            NA 2021  06    "10 " 05    27   
##  9 Watc Greta           NA <NA>            NA 2021  08    "04 " 17    32   
## 10 driv Olivi           NA <NA>            NA 2021  01    "13 " 00    17   
## #  with 2,508 more rows, and 2 more variables: my_playcount <int>,
## #   secPlayed <dbl>

song_match %>% group_by(song, playcount) %>% na.omit %>% arrange(desc(my_playcount))

## # A tibble: 106 x 12
## # Groups:   song, playcount [106]
##    song  artist release_year combined playcount Year  Month Day   Hour  Min  
##    <chr> <chr>         <int> <chr>        <int> <chr> <chr> <chr> <chr> <chr>
##  1 Holi Green         2004 Holiday         5 2020  10    "21 " 21    09   
##  2 Cali Red H         1999 Califor         4 2020  10    "24 " 23    36   
##  3 Loser Beck           1994 Loser b         1 2020  10    "24 " 23    23   
##  4 Iris  The G         1998 Iris by         2 2020  10    "30 " 21    38   
##  5 Bask Green         1994 Basket          5 2020  10    "07 " 01    06   
##  6 The  The O         1998 The Kid         1 2020  10    "24 " 23    20   
##  7 When 3 Doo         2002 When I'         6 2020  10    "24 " 23    45   
##  8 When Green         1994 When I         14 2020  10    "30 " 20    06   
##  9 My O Lit            1999 My Own          2 2020  10    "27 " 23    15   
## 10 Scar Red H         1999 Scar Ti         8 2020  10    "29 " 01    51   
## #  with 96 more rows, and 2 more variables: my_playcount <int>,
## #   secPlayed <dbl>

song_match %>% group_by(artist) %>% summarize(n = n()) %>% arrange(desc(n))

## # A tibble: 666 x 2
##    artist                 n
##    <chr>              <int>
##  1 Green Day             88
##  2 blink-182             64
##  3 Ludwig Goransson      63
##  4 Falling In Reverse    59
##  5 Alice In Chains       51
##  6 Taylor Swift          48
##  7 Rancid                45
##  8 Logic                 44
##  9 Metallica             43
## 10 Bo Burnham            42
## #  with 656 more rows

song_match %>% group_by(Year, Month, Day) %>% summarize(n = n()) %>% 
    arrange(desc(n))

## # A tibble: 187 x 4
## # Groups:   Year, Month [13]
##    Year  Month Day       n
##    <chr> <chr> <chr> <int>
##  1 2021  09    "21 "    99
##  2 2021  05    "27 "    90
##  3 2021  05    "26 "    76
##  4 2021  09    "23 "    68
##  5 2021  06    "03 "    60
##  6 2021  09    "01 "    54
##  7 2021  09    "22 "    53
##  8 2020  11    "08 "    44
##  9 2021  08    "31 "    44
## 10 2020  12    "21 "    41
## #  with 177 more rows
…
